^C:\USERS\DYLAN\DOCUMENTS\RAYTRACER-STUDIO3\RAYTRACER\AMBIENT.CPP|C:\USERS\DYLAN\DOCUMENTS\RAYTRACER-STUDIO3\RAYTRACER\BOUNDINGBOX.CPP|C:\USERS\DYLAN\DOCUMENTS\RAYTRACER-STUDIO3\RAYTRACER\CAMERA.CPP|C:\USERS\DYLAN\DOCUMENTS\RAYTRACER-STUDIO3\RAYTRACER\HEAPSORT.CPP|C:\USERS\DYLAN\DOCUMENTS\RAYTRACER-STUDIO3\RAYTRACER\HITTABLE.CPP|C:\USERS\DYLAN\DOCUMENTS\RAYTRACER-STUDIO3\RAYTRACER\KDTREE.CPP|C:\USERS\DYLAN\DOCUMENTS\RAYTRACER-STUDIO3\RAYTRACER\LIGHT.CPP|C:\USERS\DYLAN\DOCUMENTS\RAYTRACER-STUDIO3\RAYTRACER\LUASCRIPT.CPP|C:\USERS\DYLAN\DOCUMENTS\RAYTRACER-STUDIO3\RAYTRACER\MAIN.CPP|C:\USERS\DYLAN\DOCUMENTS\RAYTRACER-STUDIO3\RAYTRACER\MATERIAL.CPP|C:\USERS\DYLAN\DOCUMENTS\RAYTRACER-STUDIO3\RAYTRACER\RENDERABLE.CPP|C:\USERS\DYLAN\DOCUMENTS\RAYTRACER-STUDIO3\RAYTRACER\SCENE.CPP
C:\USERS\DYLAN\DOCUMENTS\RAYTRACER-STUDIO3\TEMP\X64\RELEASE\AMBIENT.OBJ
C:\USERS\DYLAN\DOCUMENTS\RAYTRACER-STUDIO3\TEMP\X64\RELEASE\LIGHT.OBJ
C:\USERS\DYLAN\DOCUMENTS\RAYTRACER-STUDIO3\TEMP\X64\RELEASE\MATERIAL.OBJ
C:\USERS\DYLAN\DOCUMENTS\RAYTRACER-STUDIO3\TEMP\X64\RELEASE\RENDERABLE.OBJ
C:\USERS\DYLAN\DOCUMENTS\RAYTRACER-STUDIO3\TEMP\X64\RELEASE\HEAPSORT.OBJ
C:\USERS\DYLAN\DOCUMENTS\RAYTRACER-STUDIO3\TEMP\X64\RELEASE\KDTREE.OBJ
C:\USERS\DYLAN\DOCUMENTS\RAYTRACER-STUDIO3\TEMP\X64\RELEASE\SCENE.OBJ
C:\USERS\DYLAN\DOCUMENTS\RAYTRACER-STUDIO3\TEMP\X64\RELEASE\CAMERA.OBJ
C:\USERS\DYLAN\DOCUMENTS\RAYTRACER-STUDIO3\TEMP\X64\RELEASE\HITTABLE.OBJ
C:\USERS\DYLAN\DOCUMENTS\RAYTRACER-STUDIO3\TEMP\X64\RELEASE\MAIN.OBJ
C:\USERS\DYLAN\DOCUMENTS\RAYTRACER-STUDIO3\TEMP\X64\RELEASE\BOUNDINGBOX.OBJ
^C:\USERS\DYLAN\DOCUMENTS\RAYTRACER-STUDIO3\RAYTRACER\LUASCRIPT.CPP|C:\USERS\DYLAN\DOCUMENTS\RAYTRACER-STUDIO3\RAYTRACER\RENDERABLE.CPP
C:\USERS\DYLAN\DOCUMENTS\RAYTRACER-STUDIO3\TEMP\X64\RELEASE\RENDERABLE.OBJ
^C:\USERS\DYLAN\DOCUMENTS\RAYTRACER-STUDIO3\RAYTRACER\LUASCRIPT.CPP|C:\USERS\DYLAN\DOCUMENTS\RAYTRACER-STUDIO3\RAYTRACER\MAIN.CPP
C:\USERS\DYLAN\DOCUMENTS\RAYTRACER-STUDIO3\TEMP\X64\RELEASE\LUASCRIPT.OBJ
C:\USERS\DYLAN\DOCUMENTS\RAYTRACER-STUDIO3\TEMP\X64\RELEASE\MAIN.OBJ
^C:\USERS\DYLAN\DOCUMENTS\RAYTRACER-STUDIO3\RAYTRACER\BOUNDINGBOX.CPP|C:\USERS\DYLAN\DOCUMENTS\RAYTRACER-STUDIO3\RAYTRACER\HEAPSORT.CPP|C:\USERS\DYLAN\DOCUMENTS\RAYTRACER-STUDIO3\RAYTRACER\KDTREE.CPP|C:\USERS\DYLAN\DOCUMENTS\RAYTRACER-STUDIO3\RAYTRACER\LUASCRIPT.CPP|C:\USERS\DYLAN\DOCUMENTS\RAYTRACER-STUDIO3\RAYTRACER\MAIN.CPP|C:\USERS\DYLAN\DOCUMENTS\RAYTRACER-STUDIO3\RAYTRACER\RENDERABLE.CPP|C:\USERS\DYLAN\DOCUMENTS\RAYTRACER-STUDIO3\RAYTRACER\SCENE.CPP
C:\USERS\DYLAN\DOCUMENTS\RAYTRACER-STUDIO3\TEMP\X64\RELEASE\HEAPSORT.OBJ
C:\USERS\DYLAN\DOCUMENTS\RAYTRACER-STUDIO3\TEMP\X64\RELEASE\MAIN.OBJ
C:\USERS\DYLAN\DOCUMENTS\RAYTRACER-STUDIO3\TEMP\X64\RELEASE\LUASCRIPT.OBJ
C:\USERS\DYLAN\DOCUMENTS\RAYTRACER-STUDIO3\TEMP\X64\RELEASE\BOUNDINGBOX.OBJ
C:\USERS\DYLAN\DOCUMENTS\RAYTRACER-STUDIO3\TEMP\X64\RELEASE\RENDERABLE.OBJ
C:\USERS\DYLAN\DOCUMENTS\RAYTRACER-STUDIO3\TEMP\X64\RELEASE\KDTREE.OBJ
C:\USERS\DYLAN\DOCUMENTS\RAYTRACER-STUDIO3\TEMP\X64\RELEASE\SCENE.OBJ
^C:\USERS\DYLAN\DOCUMENTS\RAYTRACER-STUDIO3\RAYTRACER\BOUNDINGBOX.CPP
C:\USERS\DYLAN\DOCUMENTS\RAYTRACER-STUDIO3\TEMP\X64\RELEASE\VC142.PDB
^C:\USERS\DYLAN\DOCUMENTS\RAYTRACER-STUDIO3\RAYTRACER\HEAPSORT.CPP
C:\USERS\DYLAN\DOCUMENTS\RAYTRACER-STUDIO3\TEMP\X64\RELEASE\VC142.PDB
^C:\USERS\DYLAN\DOCUMENTS\RAYTRACER-STUDIO3\RAYTRACER\LUASCRIPT.CPP
C:\USERS\DYLAN\DOCUMENTS\RAYTRACER-STUDIO3\TEMP\X64\RELEASE\VC142.PDB
^C:\USERS\DYLAN\DOCUMENTS\RAYTRACER-STUDIO3\RAYTRACER\MAIN.CPP
C:\USERS\DYLAN\DOCUMENTS\RAYTRACER-STUDIO3\TEMP\X64\RELEASE\VC142.PDB
^C:\USERS\DYLAN\DOCUMENTS\RAYTRACER-STUDIO3\RAYTRACER\RENDERABLE.CPP
C:\USERS\DYLAN\DOCUMENTS\RAYTRACER-STUDIO3\TEMP\X64\RELEASE\VC142.PDB
^C:\USERS\DYLAN\DOCUMENTS\RAYTRACER-STUDIO3\RAYTRACER\KDTREE.CPP|C:\USERS\DYLAN\DOCUMENTS\RAYTRACER-STUDIO3\RAYTRACER\SCENE.CPP
C:\USERS\DYLAN\DOCUMENTS\RAYTRACER-STUDIO3\TEMP\X64\RELEASE\SCENE.OBJ
C:\USERS\DYLAN\DOCUMENTS\RAYTRACER-STUDIO3\TEMP\X64\RELEASE\KDTREE.OBJ
^C:\USERS\DYLAN\DOCUMENTS\RAYTRACER-STUDIO3\RAYTRACER\KDTREE.CPP
C:\USERS\DYLAN\DOCUMENTS\RAYTRACER-STUDIO3\TEMP\X64\RELEASE\VC142.PDB
^C:\USERS\DYLAN\DOCUMENTS\RAYTRACER-STUDIO3\RAYTRACER\SCENE.CPP
C:\USERS\DYLAN\DOCUMENTS\RAYTRACER-STUDIO3\TEMP\X64\RELEASE\VC142.PDB
