^C:\USERS\DYLAN\DOCUMENTS\RAYTRACER-STUDIO3\TEMP\X64\RELEASE\AMBIENT.OBJ|C:\USERS\DYLAN\DOCUMENTS\RAYTRACER-STUDIO3\TEMP\X64\RELEASE\BOUNDINGBOX.OBJ|C:\USERS\DYLAN\DOCUMENTS\RAYTRACER-STUDIO3\TEMP\X64\RELEASE\CAMERA.OBJ|C:\USERS\DYLAN\DOCUMENTS\RAYTRACER-STUDIO3\TEMP\X64\RELEASE\HEAPSORT.OBJ|C:\USERS\DYLAN\DOCUMENTS\RAYTRACER-STUDIO3\TEMP\X64\RELEASE\HITTABLE.OBJ|C:\USERS\DYLAN\DOCUMENTS\RAYTRACER-STUDIO3\TEMP\X64\RELEASE\KDTREE.OBJ|C:\USERS\DYLAN\DOCUMENTS\RAYTRACER-STUDIO3\TEMP\X64\RELEASE\LIGHT.OBJ|C:\USERS\DYLAN\DOCUMENTS\RAYTRACER-STUDIO3\TEMP\X64\RELEASE\LUASCRIPT.OBJ|C:\USERS\DYLAN\DOCUMENTS\RAYTRACER-STUDIO3\TEMP\X64\RELEASE\MAIN.OBJ|C:\USERS\DYLAN\DOCUMENTS\RAYTRACER-STUDIO3\TEMP\X64\RELEASE\MATERIAL.OBJ|C:\USERS\DYLAN\DOCUMENTS\RAYTRACER-STUDIO3\TEMP\X64\RELEASE\RENDERABLE.OBJ|C:\USERS\DYLAN\DOCUMENTS\RAYTRACER-STUDIO3\TEMP\X64\RELEASE\SCENE.OBJ
C:\PROGRAM FILES (X86)\WINDOWS KITS\10\LIB\10.0.18362.0\UM\X64\WINMM.LIB
C:\USERS\DYLAN\DOCUMENTS\RAYTRACER-STUDIO3\RAYTRACER\LUA51_X64.LIB
C:\PROGRAM FILES (X86)\WINDOWS KITS\10\LIB\10.0.18362.0\UM\X64\KERNEL32.LIB
C:\PROGRAM FILES (X86)\WINDOWS KITS\10\LIB\10.0.18362.0\UM\X64\USER32.LIB
C:\PROGRAM FILES (X86)\WINDOWS KITS\10\LIB\10.0.18362.0\UM\X64\GDI32.LIB
C:\PROGRAM FILES (X86)\WINDOWS KITS\10\LIB\10.0.18362.0\UM\X64\WINSPOOL.LIB
C:\PROGRAM FILES (X86)\WINDOWS KITS\10\LIB\10.0.18362.0\UM\X64\COMDLG32.LIB
C:\PROGRAM FILES (X86)\WINDOWS KITS\10\LIB\10.0.18362.0\UM\X64\ADVAPI32.LIB
C:\PROGRAM FILES (X86)\WINDOWS KITS\10\LIB\10.0.18362.0\UM\X64\SHELL32.LIB
C:\PROGRAM FILES (X86)\WINDOWS KITS\10\LIB\10.0.18362.0\UM\X64\OLE32.LIB
C:\PROGRAM FILES (X86)\WINDOWS KITS\10\LIB\10.0.18362.0\UM\X64\OLEAUT32.LIB
C:\PROGRAM FILES (X86)\WINDOWS KITS\10\LIB\10.0.18362.0\UM\X64\UUID.LIB
C:\PROGRAM FILES (X86)\WINDOWS KITS\10\LIB\10.0.18362.0\UM\X64\ODBC32.LIB
C:\PROGRAM FILES (X86)\WINDOWS KITS\10\LIB\10.0.18362.0\UM\X64\ODBCCP32.LIB
C:\USERS\DYLAN\DOCUMENTS\RAYTRACER-STUDIO3\TEMP\X64\RELEASE\AMBIENT.OBJ
C:\USERS\DYLAN\DOCUMENTS\RAYTRACER-STUDIO3\TEMP\X64\RELEASE\BOUNDINGBOX.OBJ
C:\USERS\DYLAN\DOCUMENTS\RAYTRACER-STUDIO3\TEMP\X64\RELEASE\CAMERA.OBJ
C:\USERS\DYLAN\DOCUMENTS\RAYTRACER-STUDIO3\TEMP\X64\RELEASE\HEAPSORT.OBJ
C:\USERS\DYLAN\DOCUMENTS\RAYTRACER-STUDIO3\TEMP\X64\RELEASE\HITTABLE.OBJ
C:\USERS\DYLAN\DOCUMENTS\RAYTRACER-STUDIO3\TEMP\X64\RELEASE\KDTREE.OBJ
C:\USERS\DYLAN\DOCUMENTS\RAYTRACER-STUDIO3\TEMP\X64\RELEASE\LIGHT.OBJ
C:\USERS\DYLAN\DOCUMENTS\RAYTRACER-STUDIO3\TEMP\X64\RELEASE\LUASCRIPT.OBJ
C:\USERS\DYLAN\DOCUMENTS\RAYTRACER-STUDIO3\TEMP\X64\RELEASE\MAIN.OBJ
C:\USERS\DYLAN\DOCUMENTS\RAYTRACER-STUDIO3\TEMP\X64\RELEASE\MATERIAL.OBJ
C:\USERS\DYLAN\DOCUMENTS\RAYTRACER-STUDIO3\TEMP\X64\RELEASE\RENDERABLE.OBJ
C:\USERS\DYLAN\DOCUMENTS\RAYTRACER-STUDIO3\TEMP\X64\RELEASE\SCENE.OBJ
C:\WINDOWS\GLOBALIZATION\SORTING\SORTDEFAULT.NLS
C:\PROGRAM FILES (X86)\MICROSOFT VISUAL STUDIO\2019\COMMUNITY\VC\TOOLS\MSVC\14.25.28610\LIB\X64\MSVCPRT.LIB
C:\PROGRAM FILES (X86)\MICROSOFT VISUAL STUDIO\2019\COMMUNITY\VC\TOOLS\MSVC\14.25.28610\LIB\X64\MSVCRT.LIB
C:\PROGRAM FILES (X86)\MICROSOFT VISUAL STUDIO\2019\COMMUNITY\VC\TOOLS\MSVC\14.25.28610\LIB\X64\OLDNAMES.LIB
C:\PROGRAM FILES (X86)\MICROSOFT VISUAL STUDIO\2019\COMMUNITY\VC\TOOLS\MSVC\14.25.28610\LIB\X64\VCOMP.LIB
C:\USERS\DYLAN\DOCUMENTS\RAYTRACER-STUDIO3\RAYTRACER\POCOFOUNDATION.LIB
C:\PROGRAM FILES (X86)\MICROSOFT VISUAL STUDIO\2019\COMMUNITY\VC\TOOLS\MSVC\14.25.28610\LIB\X64\VCRUNTIME.LIB
C:\PROGRAM FILES (X86)\WINDOWS KITS\10\LIB\10.0.18362.0\UCRT\X64\UCRT.LIB
C:\PROGRAM FILES (X86)\MICROSOFT VISUAL STUDIO\2019\COMMUNITY\VC\TOOLS\MSVC\14.25.28610\BIN\HOSTX86\X64\CVTRES.EXE
C:\WINDOWS\SYSTEM32\TZRES.DLL
