^C:\Users\Dylan\Documents\raytracer-studio3\bin\raytracer64.exe
C:\Users\Dylan\Documents\raytracer-studio3\temp\x64\Release\vcpkg.applocal.log
^C:\Users\Dylan\Documents\raytracer-studio3\bin\raytracer64.exe
C:\Users\Dylan\Documents\raytracer-studio3\temp\x64\Release\vcpkg.applocal.log
^C:\Users\Dylan\Documents\raytracer-studio3\bin\raytracer64.exe
C:\Users\Dylan\Documents\raytracer-studio3\temp\x64\Release\vcpkg.applocal.log
^C:\Users\Dylan\Documents\raytracer-studio3\bin\raytracer64.exe
C:\Users\Dylan\Documents\raytracer-studio3\temp\x64\Release\vcpkg.applocal.log
^C:\Users\Dylan\Documents\raytracer-studio3\bin\raytracer64.exe
C:\Users\Dylan\Documents\raytracer-studio3\temp\x64\Release\vcpkg.applocal.log
^C:\Users\Dylan\Documents\raytracer-studio3\bin\raytracer64.exe
C:\Users\Dylan\Documents\raytracer-studio3\temp\x64\Release\vcpkg.applocal.log
^C:\Users\Dylan\Documents\raytracer-studio3\bin\raytracer64.exe
C:\Users\Dylan\Documents\raytracer-studio3\temp\x64\Release\vcpkg.applocal.log
^C:\Users\Dylan\Documents\raytracer-studio3\bin\raytracer64.exe
C:\Users\Dylan\Documents\raytracer-studio3\temp\x64\Release\vcpkg.applocal.log
^C:\Users\Dylan\Documents\raytracer-studio3\bin\raytracer64.exe
C:\Users\Dylan\Documents\raytracer-studio3\temp\x64\Release\vcpkg.applocal.log
^C:\Users\Dylan\Documents\raytracer-studio3\bin\raytracer64.exe
C:\Users\Dylan\Documents\raytracer-studio3\temp\x64\Release\vcpkg.applocal.log
^C:\Users\Dylan\Documents\raytracer-studio3\bin\raytracer64.exe
C:\Users\Dylan\Documents\raytracer-studio3\temp\x64\Release\vcpkg.applocal.log
